{
  "project_info": {
    "project_number": "623182220890",
    "firebase_url": "https://braby-8e52a.firebaseio.com",
    "project_id": "braby-8e52a",
    "storage_bucket": "braby-8e52a.appspot.com"
  },
  "client": [
    {
      "client_info": {
        "mobilesdk_app_id": "1:623182220890:android:4d7b9b0dd859708c",
        "android_client_info": {
          "package_name": "com.JorgitoGames.BrABY"
        }
      },
      "oauth_client": [
        {
          "client_id": "623182220890-1ak39dlrco96j05dlau36jq6b496ape5.apps.googleusercontent.com",
          "client_type": 3
        }
      ],
      "api_key": [
        {
          "current_key": "AIzaSyAYg0dXQVOQwW8hn-Hqj7jXls6u-IJwpx0"
        }
      ],
      "services": {
        "analytics_service": {
          "status": 1
        },
        "appinvite_service": {
          "status": 1,
          "other_platform_oauth_client": []
        },
        "ads_service": {
          "status": 2
        }
      }
    }
  ],
  "configuration_version": "1"
}